INDEX VERSION 1.129+/home/users/inf/wiaw2/iaw47951368/dawhome/2N/M03/workspace2/workspace2/.metadata/.plugins/org.eclipse.jdt.core
2626082972.index
376710581.index
2411660228.index
2718626950.index
1180965248.index
1306782397.index
1686567362.index
431304227.index
1561151175.index
3401583247.index
69713527.index
2169925000.index
283191378.index
2003454292.index
957137293.index
2805785226.index
354219889.index
2417547776.index
3669633646.index
705544567.index
443870587.index
1469523154.index
3415173724.index
288788019.index
3915819422.index
1662436740.index
289940557.index
2443354111.index
309535267.index
3664762748.index
1226931977.index
4049738722.index
2020086371.index
1879693148.index
4105424675.index
1040965603.index
760023261.index
988703845.index
2029743190.index
761899420.index
3932248546.index
3943261492.index
424269135.index
1553877961.index
3470613659.index
166711840.index
2857547083.index
2933343060.index
853160998.index
2240594858.index
984969388.index
3803041230.index
539883826.index
2116341422.index
1555559271.index
2353026566.index
3482645568.index
4067638547.index
2808631516.index
945700494.index
962190041.index
3109530367.index
572162294.index
3468369248.index
2322927312.index
1603703512.index
2622660210.index
2156725323.index
3784312683.index
2875222199.index
1090585533.index
1331313282.index
301813041.index
2832371849.index
332265119.index
126714608.index
2694867862.index
481705967.index
29784701.index
3730665444.index
2253080143.index
518751486.index
403650416.index
841778042.index
3592464320.index
2058337405.index
252139707.index
2387876582.index
3415788275.index
3078789882.index
2342553037.index
3956153433.index
1144603272.index
125567115.index
1299290322.index
387735435.index
3564387515.index
2824947794.index
282489863.index
3503027671.index
3822430781.index
2871163015.index
3065505385.index
3200420282.index
440789815.index
2163398914.index
3110473884.index
124805185.index
1003105211.index
3799788963.index
3905151051.index
4285623791.index
2896517577.index
1773871096.index
2365833029.index
245649479.index
2251227880.index
1446879794.index
2195973434.index
2411668281.index
2036994963.index
837844081.index
3888322202.index
2424883124.index
2077223219.index
