{
	"user": "alex",
	"password" : "pepe",
	"codsoci": 1,
	"nom": "Alex",
	"cognoms" : "Philalithes",
	"recarrecs" : [{
	    "codpeli": 1,
	    "import": 1, 
	    "cobrat": 0
	}]
}

{
	"user": "tete",
	"password" : "paco",
	"codsoci": 2,
	"nom": "Pepito",
	"cognoms" : "Palos",
	"recarrecs" : []
}

{
	"user": "cris",
	"password" : "123",
	"codsoci": 3,
	"nom": "Cristina",
	"cognoms" : "Lopez",
	"recarrecs" : []
}