<?xml version="1.0" encoding="UTF-8"?>
<session version="1.0">
<refactoring comment="Copy element &apos;file1&apos; to &apos;file1&apos;&#x0A;- Original project: &apos;IODemo8&apos;&#x0A;- Destination element: &apos;file1&apos;&#x0A;- Original element: &apos;file1&apos;" description="Copy file" element1="file1" files="1" flags="589830" folders="0" id="org.eclipse.jdt.ui.copy" policy="org.eclipse.jdt.ui.copyResources" stamp="1476814221353" target="/IODemo8/file1" units="0" version="1.0"/>
</session>