{"gimnastes":
[
{
"Nom":"Marta Sala",
"Club":"INEF",
"Fase1":{"Barra":14000,"Asimetriques":14000,"Terra":14000,"Potro":7000},
"Fase2":{"Barra":14100,"Asimetriques":14200,"Terra":14300,"Potro":14400},
"Fase3":{"Barra":14500,"Asimetriques":14600,"Terra":14700,"Potro":14800}
},
{
"Nom":"Andrea Valls Roses",
"Club":"La Salle",
"Fase1":{"Barra":15000,"Asimetriques":15000,"Terra":15000,"Potro":15000},
"Fase2":{"Barra":15100,"Asimetriques":15200,"Terra":15300,"Potro":15400},
"Fase3":{"Barra":15500,"Asimetriques":15600,"Terra":15700,"Potro":15800}
},
{
"Nom":"Duna Sallent"
,"Club":"Osona",
"Fase1":{"Barra":16000,"Asimetriques":16000,"Terra":16000,"Potro":16000},
"Fase2":{"Barra":16100,"Asimetriques":16200,"Terra":16300,"Potro":16400},
"Fase3":{"Barra":16500,"Asimetriques":16600,"Terra":16700,"Potro":16800}
}
]
}
