123456,2016-11-02T16:05:32
123456,2016-11-02T19:59:59
123456,2016-11-03T16:00:00
123456,2016-11-03T21:05:51
118765,2016-11-02T16:00:00
118765,2016-11-02T20:05:11
118765,2016-11-08T17:00:00
118765,2016-11-08T21:35:00