<?xml version='1.0' encoding='UTF-8'?>
<kml xmlns='http://www.opengis.net/kml/2.2'>
	<Document>
		<name>MapaSagradaFamília</name>
		<description><![CDATA[]]></description>
		<Folder>
			<name>Capa sense títol</name>
			<Placemark>
				<styleUrl>#icon-503-DB4436</styleUrl>
				<name>La Sagrada Família</name>
				<ExtendedData>
				</ExtendedData>
				<Point>
					<coordinates>2.1743599999999788,41.403591,0.0</coordinates>
				</Point>
			</Placemark>
		</Folder>
		<Style id='icon-503-DB4436'>
			<IconStyle>
				<color>ff3644DB</color>
				<scale>1.1</scale>
				<Icon>
					<href>http://www.gstatic.com/mapspro/images/stock/503-wht-blank_maps.png</href>
				</Icon>
			</IconStyle>
		</Style>
	</Document>
</kml>