<?xml version="1.0" encoding="UTF-8"?>
<kml xmlns="http://earth.google.com/kml/2.2" xmlns:atom="http://www.w3.org/2005/Atom">
<Document>
  <name><![CDATA[Volcanes]]></name>
  <description><![CDATA[Ciclovías Oaxaca colonia Volcanes]]></description>
  <atom:author>
    <atom:name></atom:name>
    <atom:uri></atom:uri>
  </atom:author>
  <atom:contributor>
    <atom:name>Gustavo Madrid</atom:name>
    <atom:uri>http://geocommons.com/users/tavomad</atom:uri>    
  </atom:contributor>
  <atom:rights>Creative Commons Attribution-Share Alike 2.0</atom:rights>  
  <atom:link rel="self" href="http://geocommons.com/overlays/78698.kml" type="application/vnd.google-earth.kml+xml"/>
  <atom:link rel="edit" href="http://geocommons.com/overlays/78698.atom" type="application/atom+xml;type=entry"/>
  <atom:link rel="alternate" href="http://geocommons.com/overlays/78698.atom" type="application/atom+xml"/>
  <atom:link rel="alternate" href="http://geocommons.com/overlays/78698.html" type="text/html"/>  
  <TimeStamp></TimeStamp>
  
      <!-- Line Style -->
      
      <StyleMap id="default">
      <Pair>
      	<key>normal</key>
        <styleUrl>#default_normal</styleUrl>
      </Pair>
      <Pair>
        <key>highlight</key>
        <styleUrl>#default_highlight</styleUrl>
      </Pair>
      </StyleMap>
      
    <Style id="default_normal">
    <IconStyle>
      <scale>1</scale>
      <Icon>
        <href>http://maps.google.com/mapfiles/kml/shapes/placemark_circle.png</href>
      </Icon>
    </IconStyle>
    <LabelStyle>
    	<scale>0</scale>
    
        </LabelStyle>
        <LineStyle>
          <color>eeff6600</color>
          <width>3</width>
        </LineStyle>
    <BalloonStyle>
      <bgColor>00000000</bgColor>
      <text>
        <![CDATA[
      	  <body bgcolor="#000000" width="100%">
      			<p><b><font color="#ffffff">$[Ruta/displayName]:</font></b> <font color="#DDDDDD">$[Ruta]</font></p>

      			<p><b><font color="#ffffff">$[Distancia/displayName]:</font></b> <font color="#DDDDDD">$[Distancia]</font></p>

      		<p align="center"><font size=3 face=arial color="#0099FF">Powered by GeoCommons</font></p>
        ]]>
      </text>
    </BalloonStyle>
    </Style>
      
      
    <Style id="default_highlight">
    <IconStyle>
      <scale>1</scale>
      <Icon>
        <href>http://maps.google.com/mapfiles/kml/shapes/placemark_circle_highlight.png</href>
      </Icon>
    </IconStyle>
    <LabelStyle>
    	<scale>0</scale>
    
        </LabelStyle>
        <LineStyle>
          <color>ddffffff</color>
          <width>2</width>
        </LineStyle>
    <BalloonStyle>
      <bgColor>00000000</bgColor>
      <text>
        <![CDATA[
      	  <body bgcolor="#000000" width="100%">
      			<p><b><font color="#ffffff">$[Ruta/displayName]:</font></b> <font color="#DDDDDD">$[Ruta]</font></p>

      			<p><b><font color="#ffffff">$[Distancia/displayName]:</font></b> <font color="#DDDDDD">$[Distancia]</font></p>

      		<p align="center"><font size=3 face=arial color="#0099FF">Powered by GeoCommons</font></p>
        ]]>
      </text>
    </BalloonStyle>
    </Style>
          <Placemark>
      <styleUrl>#default</styleUrl>
        <name><![CDATA[Ruta:]]></name>
      
      <ExtendedData>
          <Data name='Ruta'>
            <displayName><![CDATA[Ruta]]></displayName>
            <value><![CDATA[]]></value>
          </Data>
          <Data name='Distancia'>
            <displayName><![CDATA[Distancia]]></displayName>
            <value><![CDATA[0]]></value>
          </Data>
      </ExtendedData>
	      <MultiGeometry>
	        <LineString>
<coordinates>-96.7121525585044,17.0815031962496 -96.7120543110916,17.0821319796914 -96.7120346616091,17.0827018146855 -96.7119953626439,17.0831537527843 -96.711857816266,17.0835467424354 -96.7116416719579,17.0838218351912 -96.7114451771324,17.084096927947 -96.7113665792021,17.0843916701853 -96.7113469297196,17.0847257113888 -96.7113469297196,17.0850401031097 -96.7114058781673,17.0854134432783 -96.7115827235103,17.0857867834468 -96.7119364141963,17.0861208246503 -96.7124080017776,17.0864745153363 -96.7131939810799,17.0868282060223 -96.7139210119345,17.0871032987781 -96.7145104964112,17.0874766389467 -96.7153750736436,17.0879678760106 -96.716023506568,17.0883412161792 -96.7167898363877,17.0887931542779 -96.7172024755213,17.088969999621 -96.7172024755213,17.088969999621</coordinates>
</LineString>
	      </MultiGeometry>
    </Placemark>
    <Placemark>
      <styleUrl>#default</styleUrl>
        <name><![CDATA[Ruta:]]></name>
      
      <ExtendedData>
          <Data name='Ruta'>
            <displayName><![CDATA[Ruta]]></displayName>
            <value><![CDATA[]]></value>
          </Data>
          <Data name='Distancia'>
            <displayName><![CDATA[Distancia]]></displayName>
            <value><![CDATA[0]]></value>
          </Data>
      </ExtendedData>
	      <MultiGeometry>
	        <LineString>
<coordinates>-96.7120150121265,17.086179773098 -96.7114844760975,17.0872211956734 -96.710796744208,17.0884001646268 -96.7106002493825,17.0886752573826 -96.7101679607662,17.0891271954814 -96.7099321669755,17.08950053565 -96.7093033835337,17.0906991540859 -96.7087138990571,17.0918781230393 -96.7083012599234,17.0927819992369 -96.7078100228595,17.0936662259519 -96.7074956311386,17.0942164114635 -96.7071615899351,17.0948648443878 -96.7068471982142,17.0954739783471 -96.7068275487317,17.0954739783471</coordinates>
</LineString>
	      </MultiGeometry>
    </Placemark>
    <Placemark>
      <styleUrl>#default</styleUrl>
        <name><![CDATA[Ruta:]]></name>
      
      <ExtendedData>
          <Data name='Ruta'>
            <displayName><![CDATA[Ruta]]></displayName>
            <value><![CDATA[]]></value>
          </Data>
          <Data name='Distancia'>
            <displayName><![CDATA[Distancia]]></displayName>
            <value><![CDATA[0]]></value>
          </Data>
      </ExtendedData>
	      <MultiGeometry>
	        <LineString>
<coordinates>-96.705009349143,17.081149000933 -96.704957365491,17.0820695488459 -96.7049747774801,17.0834091960575 -96.7049551279975,17.0845339438654 -96.7050787447841,17.0855706391387 -96.7050787447841,17.086002927755 -96.7050983942667,17.0865531132665 -96.7053341880574,17.0874569894641 -96.7048822499586,17.0885573604873 -96.70450890979,17.0892450923767 -96.7042338170342,17.0898738758185 -96.703801528418,17.0906205561557 -96.7035460851448,17.0912296901149 -96.7033299408366,17.0916619787312 -96.7032120439413,17.0919960199346 -96.7030548480809,17.0923300611381 -96.7031727449762,17.0925265559636 -96.7031727449762,17.092644452859 -96.7032316934239,17.0927623497543 -96.7032316934239,17.0928998961322 -96.7034871366971,17.0930767414752 -96.703801528418,17.0931356899229 -96.7042927654819,17.0933714837136 -96.7053538375399,17.0939020197426 -96.7063952601154,17.0944325557716 -96.7072401878653,17.0948451949053 -96.7082226619931,17.0952971330041 -96.7090479402605,17.0957097721377 -96.709558826807,17.0959455659284 -96.7097160226674,17.0960438133412 -96.7098339195628,17.0962796071319 -96.7101286618011,17.0964368029923 -96.7109932390336,17.0965939988528 -96.7116220224754,17.0966529473004 -96.7123687028125,17.096849442126 -96.7129974862543,17.0970066379865 -96.7134494243531,17.0971441843644 -96.7138031150391,17.0972817307422 -96.7141371562426,17.0974782255678 -96.7141371562426,17.0974782255678</coordinates>
</LineString>
	      </MultiGeometry>
    </Placemark>
    <Placemark>
      <styleUrl>#default</styleUrl>
        <name><![CDATA[Ruta:]]></name>
      
      <ExtendedData>
          <Data name='Ruta'>
            <displayName><![CDATA[Ruta]]></displayName>
            <value><![CDATA[]]></value>
          </Data>
          <Data name='Distancia'>
            <displayName><![CDATA[Distancia]]></displayName>
            <value><![CDATA[0]]></value>
          </Data>
      </ExtendedData>
	      <MultiGeometry>
	        <LineString>
<coordinates>-96.7098142700802,17.0962403081668 -96.7098928680104,17.095257834039 -96.7099321669755,17.0943736073239 -96.7099321669755,17.0934893806089 -96.710089362836,17.0925462054462 -96.7103644555918,17.0910724942545 -96.7105413009348,17.0903258139173 -96.7105609504173,17.0898935253011 -96.7106002493825,17.0896577315104 -96.7102072597313,17.0895987830628 -96.7099518164581,17.0894219377197 -96.7097749711151,17.0892647418593 -96.7094212804291,17.0886163089349 -96.7090479402605,17.0878303296327 -96.7087924969873,17.0872015461909 -96.7085567031966,17.0867299586095 -96.7083995073362,17.0862190720631 -96.7082816104408,17.0859832782724 -96.7081244145804,17.0858064329294 -96.7073384352781,17.0854723917259 -96.7065721054584,17.0852365979353 -96.7060415694294,17.0850204536271 -96.7055503323655,17.084804309319 -96.7052555901272,17.0846471134586 -96.7050197963365,17.0846078144935 -96.7050197963365,17.0846078144935</coordinates>
</LineString>
	      </MultiGeometry>
    </Placemark>
    <Placemark>
      <styleUrl>#default</styleUrl>
        <name><![CDATA[Ruta:]]></name>
      
      <ExtendedData>
          <Data name='Ruta'>
            <displayName><![CDATA[Ruta]]></displayName>
            <value><![CDATA[]]></value>
          </Data>
          <Data name='Distancia'>
            <displayName><![CDATA[Distancia]]></displayName>
            <value><![CDATA[0]]></value>
          </Data>
      </ExtendedData>
	      <MultiGeometry>
	        <LineString>
<coordinates>-96.7103644555918,17.0910724942545 -96.7096963731849,17.0907777520161 -96.7085567031966,17.0902668654697 -96.7075152806211,17.0897756284058 -96.706238064255,17.0892450923767 -96.7055110334004,17.0888914016907 -96.704862600476,17.0885573604873 -96.704862600476,17.0885573604873</coordinates>
</LineString>
	      </MultiGeometry>
    </Placemark>
    <Placemark>
      <styleUrl>#default</styleUrl>
        <name><![CDATA[Ruta:]]></name>
      
      <ExtendedData>
          <Data name='Ruta'>
            <displayName><![CDATA[Ruta]]></displayName>
            <value><![CDATA[]]></value>
          </Data>
          <Data name='Distancia'>
            <displayName><![CDATA[Distancia]]></displayName>
            <value><![CDATA[0]]></value>
          </Data>
      </ExtendedData>
	      <MultiGeometry>
	        <LineString>
<coordinates>-96.705039445819,17.0845881650109 -96.7044106623772,17.0843720207028 -96.7036443325575,17.08427377329 -96.7027797553251,17.0844899175981 -96.7012077967206,17.0847060619062 -96.6996751370812,17.084981154662 -96.6984765186453,17.0852169484527 -96.6973761476221,17.0855313401736 -96.6964919209071,17.0858064329294 -96.6953719004014,17.0861011751677 -96.6945662716166,17.0863762679235 -96.6938785397271,17.0866120617142 -96.6936034469713,17.0866906596444 -96.6936034469713,17.0866906596444</coordinates>
</LineString>
	      </MultiGeometry>
    </Placemark>
    <Placemark>
      <styleUrl>#default</styleUrl>
        <name><![CDATA[Ruta:]]></name>
      
      <ExtendedData>
          <Data name='Ruta'>
            <displayName><![CDATA[Ruta]]></displayName>
            <value><![CDATA[]]></value>
          </Data>
          <Data name='Distancia'>
            <displayName><![CDATA[Distancia]]></displayName>
            <value><![CDATA[0]]></value>
          </Data>
      </ExtendedData>
	      <MultiGeometry>
	        <LineString>
<coordinates>-96.7132922284927,17.0970655864341 -96.7132922284927,17.096142060754 -96.713233280045,17.0954150298994 -96.7130171357369,17.0946290505972 -96.7129581872892,17.0943343083588 -96.7129581872892,17.0940985145681 -96.7129974862543,17.0938627207775 -96.7130957336671,17.0935679785391 -96.7131939810799,17.0932339373357 -96.7132922284927,17.0929588445799 -96.7133708264229,17.0927623497543 -96.7133904759054,17.0925462054462 -96.7132725790101,17.092290762173 -96.713233280045,17.0922121642427 -96.7127420429811,17.0920549683823 -96.7125062491904,17.0919370714869 -96.71234905333,17.0917602261439 -96.7122115069521,17.0916423292486 -96.7120936100567,17.0915440818358 -96.7111897338591,17.0915637313184 -96.7104823524871,17.0915637313184 -96.7102269092139,17.0915440818358 -96.7102269092139,17.0915440818358</coordinates>
</LineString>
	      </MultiGeometry>
    </Placemark>
</Document>
</kml>
