Yemen	4.71	96
Philippines	57.41	95.5
Azerbaijan	23.09	49.5
Saudi Arabia	7.66	94.5
Kuwait	13.86	92.5
Poland	33.98	74.5
Croatia	24.81	66.5
Madagascar	22.10	93
Norway	29.27	20.5
Belize	33.75	61.5
Sweden	30.73	16.5
Morocco	11.99	98.5
Tanzania	32.80	96.5
Estonia	36.69	16
United Kingdom	33.71	26.5
Qatar	6.32	94.5
Israel	26.39	49.5
Czech Republic	26.53	20.5
Uganda	33.33	93
Panama	43.31	88
Paraguay	34.34	91.5
Algeria	5.27	93
United States	42.31	65
Cambodia	15.78	96
Slovakia	30.53	46.5
El Salvador	30.76	83
Armenia	22.72	72.5
Cyprus	15.67	75
Sri Lanka	21.79	99
Bangladesh	23.39	100
Trinidad and Tobago	38.75	92
Nepal	11.08	93
Italy	23.09	71.5
Netherlands	24.43	24.5
Germany	27.52	40.5
France	35.25	29.5
Ukraine	38.67	45.5
Costa Rica	28.94	79
Ireland	26.70	53.5
Switzerland	26.14	41.5
Australia	33.42	32
Nicaragua	40.01	84
Bahrain	11.45	95.5
South Africa	31.11	84.5
Argentina	28.03	66
Moldova	38.59	71.5
Singapore	22.47	70
Pakistan	2.70	96.5
Malaysia	23.69	95.5
Ecuador	29.24	82
Finland	28.07	28
Spain	31.69	49.5
Mexico	23.70	72
Egypt	10.04	98
United Arab Emirates	8.75	91
Iran	14.03	82.5
Uruguay	37.85	40.5
Belgium	31.47	33
Macedonia	26.98	78.5
Botswana	31.25	77
New Zealand	36.31	33
Bulgaria	32.84	33.5
Lithuania	40.68	41.5
Greece	25.11	71.5
Latvia	40.38	39
Burkina Faso	30.95	87.5
Portugal	31.92	71.5
Montenegro	27.09	45.5
Dominican Republic	30.96	86
Ethiopia	19.24	91
Indonesia	20.91	99
Lebanon	9.80	89.5
Kazakhstan	35.70	43
Brazil	34.04	86.5
Russia	37.69	33
Namibia	34.83	91.5
Chile	32.72	69.5
Canada	34.74	42
Denmark	23.12	18
Kyrgyzstan	28.77	72.5
Bolivia	26.84	88.5
Hungary	37.02	39
Turkey	8.13	89.5
Slovenia	30.89	47
Laos	6.15	96.5
Hong Kong	25.35	23
India	14.59	79
Serbia	30.80	50.5
Peru	25.62	83.5
Vietnam	19.29	29.5
Austria	27.94	55
Georgia	27.72	80
Thailand	26.47	94
Puerto Rico	39.12	84.5
