<?xml version="1.0" encoding="UTF-8"?>
<session version="1.0">
<refactoring comment="Move element &apos;appResource.properties&apos; to &apos;systemproperties&apos;&#x0A;- Original project: &apos;SpringDemo3&apos;&#x0A;- Destination element: &apos;systemproperties&apos;&#x0A;- Original element: &apos;appResource.properties&apos;&#x0A;- Update references to refactored element" description="Move file" element1="src/main/resources/appResource.properties" files="1" flags="589830" folders="0" id="org.eclipse.jdt.ui.move" policy="org.eclipse.jdt.ui.moveResources" qualified="false" references="true" stamp="1484149828008" target="src/main/resources/systemproperties" units="0" version="1.0"/>
</session>